{
  "iisSettings": {
    "windowsAuthentication": false,
    "anonymousAuthentication": true,
    "iisExpress": {
      "applicationUrl": "http://localhost:52455/",
      "sslPort": 44331
    }
  },
  "profiles": {
    "WebApi2020": {
      "commandName": "Project",
      "dotnetRunMessages": true,
      "launchBrowser": true,
      "launchUrl": "swagger",
      "applicationUrl": "https://localhost:7191;http://localhost:5191",
      "environmentVariables": {
        "ASPNETCORE_ENVIRONMENT": "Development"
      }
    },
    "IIS Express": {
      "commandName": "IISExpress",
      "launchBrowser": true,
      "launchUrl": "swagger",
      "environmentVariables": {
        "ASPNETCORE_ENVIRONMENT": "Development"
      }
    }
  }
  //"profiles": {
  //  "IIS Express": {
  //    "commandName": "IISExpress",
  //    "launchBrowser": true,
  //    "environmentVariables": {
  //      "ASPNETCORE_ENVIRONMENT": "Development"
  //    }
  //  },
  //  "WebApi": {
  //    "commandName": "Project",
  //    "launchBrowser": true,
  //    "environmentVariables": {
  //      "ASPNETCORE_ENVIRONMENT": "Development"
  //    },
  //    "applicationUrl": "https://localhost:5001;http://localhost:5000"
  //  }
  //}
}